<svg xmlns="http://www.w3.org/2000/svg" xmlns:xlink="http://www.w3.org/1999/xlink" preserveAspectRatio="xMidYMid" width="38" height="23" viewBox="0 0 38 23">
  <defs>
    <style>
      .cls-1 {
        fill: #fff;
        fill-rule: evenodd;
      }
    </style>
  </defs>
  <path d="M37.549,10.388 L27.771,0.461 C27.167,-0.152 26.199,-0.152 25.595,0.461 C24.991,1.074 24.991,2.057 25.595,2.671 L32.751,9.937 L1.538,9.937 C0.683,9.937 -0.001,10.631 -0.001,11.499 C-0.001,12.366 0.683,13.061 1.538,13.061 L32.751,13.061 L25.595,20.327 C24.991,20.940 24.991,21.923 25.595,22.537 C25.891,22.837 26.290,22.999 26.677,22.999 C27.065,22.999 27.463,22.849 27.760,22.537 L37.537,12.609 C38.153,11.985 38.153,10.990 37.549,10.388 Z" class="cls-1"/>
</svg>
